{
    "main" : {
        "name": "yt003",
        "image_size": "512*32",
        "saving_name": "yt003-results",
        "is_local": "True",
        "local_folder": "./",
        "datacenter_folder": "/home/hpc/tl/tmp/" ,
        "local_dataset_folder": "./",
        "datacenter_dataset_folder": "/home/hpc/tl/Datasets/YTC/",
        "train_data": "yt_happy_sad_v2_train_data-ubyte.gz",
        "train_label": "yt_happy_sad_v2_train_labels-ubyte.gz",
        "validation_data": "yt_happy_sad_v2_val_data-ubyte.gz",
        "validation_label": "yt_happy_sad_v2_val_labels-ubyte.gz",
        "test_data": "yt_happy_sad_v2_test_data-ubyte.gz",
        "test_label": "yt_happy_sad_v2_test_labels-ubyte.gz"
    },
    "network": {
        "epochs": [50],
        "learning_rate": 0.001,
        "num_steps": 512,
        "batch_size": 64,
        "print_step": 100,
        "num_layers": 5,
        "num_conv_layers": 3,
        "num_classes": 2
    },
    "layer_1" : {
        "type": "Conv",
        "weight": [3,3,1,32],
        "weight_name": "W1",
        "bias": 32,
        "bias_name": "B1"
    },
    "layer_2" : {
        "type": "Conv",
        "weight": [3,3,32,32],
        "weight_name": "W2",
        "bias": 32,
        "bias_name": "B2"
    },
    "layer_3" : {
        "type": "Conv",
        "weight": [3,3,32,64],
        "weight_name": "W3",
        "bias": 64,
        "bias_name": "B3",
        "pool": [1,8,1,1],
        "pool_strides": [1,8,1,1]
    },
    "layer_4": {
        "type": "Conv",
        "weight": [3,3,64,128],
        "weight_name": "W3",
        "bias": 128,
        "bias_name": "B3"
    },
    "layer_5": {
        "type": "Conv",
        "weight": [3,3,128,128],
        "weight_name": "W3",
        "bias": 128,
        "bias_name": "B3",
        "pool": [1,2,1,1],
        "pool_strides": [1,2,1,1]

    },
    "layer_5": {
        "type": "Conv",
        "weight": [3,3,64,64],
        "weight_name": "W3",
        "bias": 64,
        "bias_name": "B3",
        "pool": [1,2,1,1],
        "pool_strides": [1,2,1,1]

    },
    "layer_4" : {
        "type": "FC",
        "weight": [16384,1024],
        "weight_name": "W4",
        "bias": 1024,
        "bias_name": "B4",
        "pool": [1,2,2,1],
        "pool_strides": [1,2,2,1],
        "reshape": [-1, 16384]
    },
    "layer_5" : {
        "type": "FC",
        "weight": [1024,2],
        "weight_name": "W5",
        "bias": 2,
        "bias_name": "B5"
    }
}
