{
    "main" : {
        "name": "TFSRC010",
        "image_size": "512*32",
        "saving_name": "TFSRC010-results",
        "is_local": "True",
        "local_folder": "./",
        "datacenter_folder": "/home/hpc/tl/tmp/" ,
        "local_dataset_folder": "./",
        "datacenter_dataset_folder": "/home/hpc/tl/Datasets/TFSRC",
        "train_data": "tfsrc-train-data-ubyte.gz",
        "train_label": "tfsrc-train-label-ubyte.gz",
        "validation_data": "tfsrc-val-data-ubyte.gz",
        "validation_label": "tfsrc-val-label-ubyte.gz",
        "test_data": "tfsrc-test-data-ubyte.gz",
        "test_label": "tfsrc-test-label-ubyte.gz"
    },
    "network": {
        "epochs": [10, 50, 100],
        "learning_rate": 0.1,
        "num_steps": 512,
        "batch_size": 1024,
        "print_step": 100,
        "num_layers": 7,
        "num_conv_layers": 5,
        "num_classes": 36
    },
    "layer_1" : {
        "type": "Conv",
        "weight": [5,5,1,16],
        "weight_name": "W1",
        "bias": 16,
        "bias_name": "B1"
    },
    "layer_2" : {
        "type": "Conv",
        "weight": [5,5,16,32],
        "weight_name": "W2",
        "bias": 32,
        "bias_name": "B2",
        "pool": [1,8,1,1],
        "pool_strides": [1,2,2,1]
    },
    "layer_3" : {
        "type": "Conv",
        "weight": [5,5,32,64],
        "weight_name": "W3",
        "bias": 64,
        "bias_name": "B3",
        "pool": [1,2,1,1],
        "pool_strides": [1,2,2,1]
    },
    "layer_4" : {
        "type": "FC",
        "weight": [16384,1024],
        "weight_name": "W4",
        "bias": 1024,
        "bias_name": "B4",
        "pool": [1,2,2,1],
        "pool_strides": [1,2,2,1],
        "reshape": [-1, 16384]
    },
    "layer_5" : {
        "type": "FC",
        "weight": [1024,36],
        "weight_name": "W5",
        "bias": 36,
        "bias_name": "B5"
    }
}